HGUTheme
…
These can be useful for quickly colouring ggplot2 plots,
lets make a quick example. A fairly common plot you might make as a
scientist is a scatter plot with a trend and then putting a linear
regression line on top. First we can make some fake data

plot_data <- tibble(
  x = runif(100),
  y = x + rnorm(100, 0, 0.2)
)
plot_data
#> # A tibble: 100 × 2
#>          x       y
#>      <dbl>   <dbl>
#>  1 0.828    0.798 
#>  2 0.278    0.0761
#>  3 0.206    0.241 
#>  4 0.767    0.574 
#>  5 0.432    0.665 
#>  6 0.626    0.941 
#>  7 0.00237 -0.324 
#>  8 0.521    0.789 
#>  9 0.304    0.546 
#> 10 0.0631   0.261 
#> # … with 90 more rows
…
