HGUTheme • HGUTheme
…
These can be useful for quickly colouring ggplot2 plots,
lets make a quick example. A fairly common plot you might make as a
scientist is a scatter plot with a trend and then putting a linear
regression line on top. First we can make some fake data

plot_data <- tibble(
  x = runif(100),
  y = x + rnorm(100, 0, 0.2)
)
plot_data
#> # A tibble: 100 × 2
#>          x        y
#>      <dbl>    <dbl>
#>  1 0.196    0.00780
#>  2 0.685    0.908  
#>  3 0.514    0.679  
#>  4 0.414    0.720  
#>  5 0.154    0.195  
#>  6 0.782    0.704  
#>  7 0.313    0.408  
#>  8 0.00953 -0.0679 
#>  9 0.144   -0.0359 
#> 10 0.951    1.10   
#> # … with 90 more rows
…
